<?xml version="1.0" standalone="no"?>
<!DOCTYPE svg PUBLIC "-//W3C//DTD SVG 20010904//EN"
 "http://www.w3.org/TR/2001/REC-SVG-20010904/DTD/svg10.dtd">
<svg version="1.0" xmlns="http://www.w3.org/2000/svg"
 width="700.000000pt" height="700.000000pt" viewBox="0 0 700.000000 700.000000"
 preserveAspectRatio="xMidYMid meet">
<metadata>
Created by potrace 1.11, written by Peter Selinger 2001-2013
</metadata>
<g transform="translate(0.000000,700.000000) scale(0.100000,-0.100000)"
fill="#000000" stroke="none">
<path d="M3338 6994 c-2 -1 -41 -5 -88 -8 -47 -3 -102 -8 -122 -11 -129 -18
-167 -24 -198 -32 -14 -3 -28 -6 -31 -5 -3 0 -23 -4 -45 -9 -21 -6 -66 -16
-99 -24 -83 -20 -76 -18 -210 -65 -66 -23 -126 -42 -132 -42 -7 -1 -13 -4 -13
-8 0 -4 -6 -7 -12 -7 -23 0 -232 -100 -353 -168 -44 -25 -96 -53 -115 -62 -19
-9 -37 -20 -40 -23 -3 -3 -28 -20 -56 -38 -28 -18 -60 -40 -71 -50 -11 -9 -35
-28 -53 -42 -18 -14 -39 -31 -47 -38 -7 -7 -13 -11 -13 -8 0 4 -12 -5 -27 -18
-62 -55 -76 -66 -85 -66 -5 0 -6 -4 -3 -10 3 -5 2 -10 -4 -10 -6 0 -38 -26
-72 -57 -118 -110 -155 -149 -264 -278 -22 -26 -51 -60 -65 -74 -13 -14 -22
-26 -20 -27 3 0 -5 -14 -17 -30 -13 -16 -36 -47 -53 -69 -16 -22 -33 -44 -38
-50 -4 -5 -19 -28 -32 -50 -13 -22 -28 -44 -33 -50 -10 -12 -72 -129 -124
-235 -21 -41 -40 -77 -44 -80 -3 -3 -14 -27 -24 -55 -10 -27 -22 -54 -25 -60
-14 -20 -50 -125 -42 -125 4 0 1 -4 -5 -8 -7 -4 -14 -17 -16 -27 -2 -11 -7
-28 -11 -37 -4 -9 -9 -22 -10 -30 -2 -7 -6 -20 -9 -28 -10 -27 -32 -95 -33
-105 -1 -5 -3 -12 -4 -15 -2 -6 -7 -26 -14 -58 -3 -13 -7 -31 -10 -40 -3 -9
-7 -28 -10 -42 -3 -14 -7 -36 -10 -50 -3 -13 -8 -42 -12 -64 -3 -22 -7 -43 -9
-46 -1 -3 -6 -32 -10 -65 -4 -33 -9 -71 -11 -85 -2 -14 -6 -70 -9 -124 -3 -55
-8 -103 -11 -107 -2 -4 0 -10 5 -14 6 -3 7 -15 2 -28 -5 -14 -5 -30 0 -40 6
-9 6 -17 2 -17 -9 0 -9 -67 0 -76 3 -3 2 -18 -3 -33 -4 -15 -4 -35 1 -44 6 -9
5 -18 0 -21 -6 -4 -6 -18 -1 -36 5 -17 6 -30 2 -30 -9 0 -7 -63 1 -77 4 -6 3
-13 0 -17 -8 -8 -7 -131 1 -145 4 -5 2 -12 -3 -15 -6 -4 -6 -18 -1 -36 5 -17
6 -30 2 -30 -9 0 -7 -63 1 -77 4 -6 4 -13 0 -17 -4 -3 -6 -34 -5 -69 3 -100 3
-130 -2 -134 -3 -3 -1 -16 4 -29 5 -13 6 -25 2 -28 -8 -5 -7 -114 1 -122 3 -3
2 -18 -3 -33 -4 -16 -5 -34 -1 -40 6 -10 7 -56 1 -56 -6 0 -4 -57 2 -61 5 -3
5 -11 1 -17 -10 -16 -10 -187 0 -187 5 0 5 -5 2 -11 -10 -15 -12 -79 -3 -79 4
0 3 -11 -2 -24 -5 -13 -7 -26 -4 -29 7 -7 11 -77 4 -77 -8 0 -4 -55 5 -69 3
-6 3 -11 -2 -11 -9 0 -8 -114 1 -129 4 -5 3 -12 -1 -14 -9 -6 -9 -115 0 -123
3 -3 2 -18 -3 -33 -4 -15 -4 -35 1 -44 6 -9 5 -18 0 -21 -6 -4 -6 -18 -1 -36
5 -17 6 -30 2 -30 -9 0 -7 -63 1 -77 4 -6 3 -13 0 -17 -8 -8 -7 -131 1 -145 4
-5 2 -12 -3 -15 -6 -4 -6 -18 -1 -36 5 -17 6 -30 2 -30 -9 0 -7 -63 1 -77 4
-6 4 -13 0 -17 -4 -3 -6 -34 -5 -69 3 -100 3 -130 -2 -134 -3 -3 -1 -16 4 -29
5 -13 6 -25 2 -28 -8 -5 -7 -114 1 -122 3 -3 2 -18 -3 -33 -4 -16 -5 -34 -1
-40 6 -10 7 -56 1 -56 -6 0 -4 -57 2 -61 5 -3 5 -11 1 -17 -10 -16 -10 -187 0
-187 5 0 5 -5 2 -11 -10 -15 -12 -79 -3 -79 4 0 3 -11 -2 -24 -5 -13 -7 -26
-4 -29 7 -7 11 -77 4 -77 -8 0 -4 -55 5 -69 3 -6 3 -11 -2 -11 -9 0 -8 -114 1
-129 4 -5 3 -12 -1 -14 -7 -4 -9 -110 -3 -127 1 -3 1 -17 0 -32 l-2 -28 745 0
c654 0 744 2 744 15 0 8 -4 15 -9 15 -5 0 -6 6 -2 12 11 17 10 50 -1 67 -5 9
-4 12 3 7 12 -7 9 65 -3 84 -3 6 -2 10 2 10 11 0 9 122 -2 140 -5 8 -4 11 3 6
12 -7 9 65 -3 84 -3 6 -2 10 3 10 8 0 9 50 2 85 -2 6 -1 15 0 20 6 25 4 41 -5
47 -7 5 -7 8 0 8 12 0 12 120 0 140 -5 8 -4 11 3 6 12 -7 9 65 -3 84 -3 6 -2
10 2 10 11 0 9 122 -2 140 -5 8 -4 11 3 6 12 -7 9 65 -3 84 -3 6 -2 10 3 10 8
0 9 50 2 85 -2 6 -1 15 0 20 6 25 4 41 -5 47 -7 5 -6 8 1 8 6 0 9 21 8 53 -1
28 0 55 2 59 5 8 54 -14 54 -24 0 -5 9 -8 20 -8 11 0 20 -4 20 -10 0 -5 5 -10
11 -10 7 0 48 -19 93 -41 73 -38 225 -106 244 -110 4 -1 18 -6 32 -12 31 -13
26 -11 83 -27 26 -8 47 -17 47 -20 0 -3 12 -7 26 -8 15 -1 33 -7 41 -13 7 -7
16 -9 20 -6 3 3 18 0 34 -9 16 -8 29 -12 29 -8 0 4 6 1 13 -5 8 -6 17 -8 20
-5 3 3 12 2 19 -2 7 -4 19 -9 28 -10 8 -1 51 -10 95 -19 44 -9 98 -19 120 -22
22 -2 54 -8 70 -12 17 -4 40 -7 53 -6 12 1 22 -1 22 -4 0 -12 490 -18 600 -8
70 7 213 26 245 32 11 2 34 7 50 10 94 18 142 28 155 33 18 6 28 9 60 15 14 3
36 10 50 15 14 5 27 10 30 10 7 1 17 4 143 46 60 20 122 43 138 51 16 9 29 13
29 10 0 -2 20 7 45 21 25 13 45 22 45 19 0 -2 17 5 38 16 43 24 89 48 152 77
25 12 63 33 85 47 22 13 56 34 75 45 52 30 73 44 88 58 7 6 17 12 21 12 5 0
20 12 35 26 14 15 26 24 26 20 0 -4 15 7 33 23 17 17 38 31 45 31 7 0 10 5 7
10 -3 6 -1 10 4 10 6 0 20 8 32 17 11 10 33 28 47 40 15 13 31 23 36 23 5 0 6
3 3 7 -4 3 7 14 23 24 17 11 30 23 30 29 0 5 5 10 11 10 16 0 266 260 251 260
-4 0 0 6 8 13 9 7 33 35 55 62 21 28 44 55 49 60 6 6 22 27 36 47 14 21 28 38
33 38 4 0 7 7 7 15 0 8 5 15 10 15 6 0 10 4 10 9 0 7 77 129 99 157 11 13 26
56 23 67 -1 4 2 7 7 7 9 0 70 116 72 135 0 6 7 14 15 18 8 4 14 14 14 22 0 7
13 40 28 72 16 32 34 74 41 93 8 19 27 71 43 115 17 44 31 85 32 90 2 6 6 17
9 25 18 49 36 114 32 118 -3 3 -1292 6 -1456 3 -33 -1 -39 -6 -74 -63 -22 -35
-42 -64 -47 -66 -4 -2 -8 -10 -8 -17 0 -7 -3 -15 -7 -17 -5 -1 -21 -22 -37
-46 -37 -54 -204 -226 -271 -278 -27 -21 -53 -43 -57 -49 -5 -7 -8 -7 -8 0 0
6 -3 6 -8 0 -4 -6 -28 -23 -53 -37 -25 -15 -51 -34 -59 -42 -7 -9 -21 -16 -30
-16 -10 0 -20 -3 -22 -7 -3 -8 -75 -47 -87 -49 -3 0 -24 -9 -46 -19 -62 -28
-75 -33 -155 -59 -67 -22 -116 -35 -145 -41 -5 -1 -12 -3 -15 -4 -6 -3 -25 -6
-95 -16 -27 -3 -63 -8 -80 -11 -25 -3 -295 -5 -332 -2 -7 1 -13 4 -13 7 0 4
-17 6 -37 6 -21 -1 -42 2 -48 6 -5 4 -14 7 -20 7 -34 1 -102 16 -114 25 -8 7
-17 11 -20 9 -12 -5 -101 20 -101 29 0 5 -3 8 -7 7 -14 -4 -103 26 -103 34 0
4 -5 8 -11 8 -6 0 -38 13 -69 29 -32 16 -61 27 -64 24 -3 -4 -6 -2 -6 3 0 5
-17 18 -37 29 -21 11 -46 27 -56 36 -9 9 -30 22 -45 30 -15 8 -34 22 -43 31
-9 10 -21 18 -27 18 -6 0 -18 10 -26 22 -9 12 -16 19 -16 15 0 -4 -16 8 -35
28 -20 19 -40 35 -45 35 -6 0 -10 7 -10 17 0 9 -3 14 -6 11 -5 -6 -47 37 -102
102 -11 14 -30 36 -41 49 -12 13 -21 27 -21 31 0 4 -8 16 -17 28 -45 53 -52
62 -48 62 3 0 -10 24 -29 52 -37 60 -106 199 -106 217 0 6 -5 11 -12 11 -6 0
-8 3 -5 6 3 4 1 16 -5 28 -6 11 -13 52 -14 89 -2 65 -1 68 19 65 12 -1 27 1
34 5 6 4 14 3 18 -3 4 -7 12 -7 26 0 13 7 25 7 37 1 13 -7 22 -7 29 0 8 8 13
7 17 0 5 -8 13 -8 27 -1 10 6 19 7 19 2 0 -5 23 -6 50 -2 28 4 53 3 56 -2 3
-5 12 -4 19 2 9 8 15 8 20 0 4 -7 12 -7 25 0 11 6 21 6 25 1 3 -6 17 -6 35 -1
18 5 32 5 36 -1 4 -6 11 -6 19 1 9 8 15 8 20 0 4 -6 12 -7 24 0 12 6 22 5 29
-2 9 -9 12 -9 12 0 0 9 5 10 18 3 13 -7 22 -7 29 0 8 8 13 7 17 0 5 -8 13 -8
27 -1 10 6 19 7 19 3 0 -10 63 -8 79 2 6 3 11 1 11 -5 0 -6 5 -8 11 -5 15 10
79 12 79 3 0 -3 14 -3 30 2 17 5 30 5 30 2 0 -9 64 -7 79 3 6 3 11 1 11 -5 0
-8 6 -8 20 0 13 7 26 7 38 1 13 -7 22 -7 29 0 8 8 13 7 17 0 5 -8 13 -8 27 -1
12 7 19 7 19 1 0 -6 11 -6 29 -1 15 4 34 4 42 -1 7 -4 19 -4 25 2 8 7 14 6 19
-1 4 -7 12 -7 26 0 10 6 19 7 19 3 0 -10 63 -8 79 2 6 3 11 1 11 -5 0 -6 5 -8
11 -5 15 10 79 12 79 3 0 -3 14 -3 30 2 17 5 30 5 30 2 0 -9 64 -7 79 3 6 3
11 1 11 -5 0 -8 6 -8 20 0 13 7 26 7 38 1 13 -7 22 -7 29 0 8 8 13 7 17 0 5
-8 13 -8 27 -1 10 6 19 7 19 3 0 -10 63 -8 79 2 6 3 11 1 11 -5 0 -6 5 -8 11
-5 15 10 79 12 79 3 0 -3 14 -3 30 2 17 5 30 5 30 2 0 -9 64 -7 79 3 6 3 11 1
11 -5 0 -8 6 -8 20 0 14 8 20 8 20 0 0 -8 6 -8 20 0 14 8 20 8 20 0 0 -6 5 -8
11 -5 15 10 79 12 79 3 0 -3 14 -3 30 2 17 5 30 5 30 2 0 -9 64 -7 79 3 6 3
11 1 11 -5 0 -6 5 -8 11 -5 16 10 80 12 86 2 3 -4 11 -3 18 3 9 8 15 8 20 0 4
-7 12 -7 25 0 11 6 21 6 25 1 3 -6 17 -6 35 -1 18 5 32 5 36 -1 4 -6 11 -6 19
1 9 8 15 8 20 0 4 -6 12 -7 24 0 12 6 22 5 29 -2 9 -9 12 -9 12 0 0 9 5 10 18
3 13 -7 22 -7 29 0 8 8 13 7 17 0 5 -8 13 -8 27 -1 10 6 19 7 19 3 0 -10 63
-8 79 2 6 3 11 1 11 -5 0 -6 5 -8 11 -5 15 10 79 12 79 3 0 -3 14 -3 30 2 17
5 30 5 30 2 0 -9 64 -7 79 3 6 3 11 1 11 -5 0 -8 6 -8 20 0 13 7 26 7 38 1 13
-7 22 -7 29 0 8 8 13 7 17 0 5 -8 13 -8 27 -1 10 6 19 7 19 2 0 -5 23 -6 50
-2 28 4 53 3 56 -2 3 -5 12 -4 19 2 9 8 15 8 20 0 4 -7 12 -7 25 0 11 6 21 6
25 1 3 -6 17 -6 35 -1 18 5 32 5 36 -1 4 -6 11 -6 19 1 9 8 15 8 20 0 4 -6 12
-7 24 0 12 6 22 5 28 -1 8 -8 17 -7 32 0 15 8 21 9 21 1 0 -6 5 -8 11 -5 15
10 79 12 79 3 0 -3 14 -3 30 2 17 5 30 5 30 2 0 -9 64 -7 79 3 6 3 11 1 11 -5
0 -8 6 -8 20 0 14 8 20 8 20 0 0 -8 6 -8 20 0 14 8 20 8 20 0 0 -6 5 -8 11 -5
15 10 79 12 79 3 0 -3 14 -3 30 2 17 5 30 5 30 2 0 -9 64 -7 79 3 6 3 11 1 11
-5 0 -7 6 -8 18 -2 15 7 40 8 67 2 6 -1 15 -1 20 0 6 1 16 3 24 4 10 1 16 16
18 46 10 146 14 226 14 238 -2 29 -1 175 1 207 1 25 -14 249 -17 255 -2 3 -7
38 -10 76 -4 38 -10 73 -13 78 -3 5 -7 28 -8 50 -2 22 -6 47 -10 55 -3 9 -8
27 -10 41 -2 14 -7 36 -11 50 -3 14 -5 31 -4 38 1 6 -2 12 -6 12 -4 0 -9 11
-10 25 -4 46 -6 55 -15 55 -5 0 -7 4 -3 10 3 5 1 17 -4 27 -7 15 -33 94 -37
113 0 3 -4 13 -8 22 -4 9 -9 22 -10 30 -2 7 -9 27 -16 43 -7 17 -14 33 -14 37
-1 3 -4 10 -8 14 -5 4 -8 14 -8 22 0 16 -149 324 -160 332 -4 3 -11 16 -15 30
-9 28 -49 93 -79 129 -13 15 -15 21 -6 17 9 -5 8 -2 -2 7 -10 8 -18 19 -18 26
0 6 -5 11 -12 11 -6 0 -8 3 -5 6 4 4 -2 14 -12 23 -10 9 -29 34 -43 56 -14 22
-37 53 -52 68 -14 15 -26 31 -26 34 0 5 -11 18 -124 147 -87 100 -241 248
-315 303 -12 10 -36 30 -52 46 -16 15 -33 27 -37 27 -4 0 -19 10 -34 23 -14
12 -35 30 -47 39 -11 9 -53 38 -93 65 -40 26 -74 51 -76 55 -2 5 -12 8 -22 8
-10 0 -22 5 -25 10 -4 6 -11 8 -16 5 -5 -4 -9 -2 -9 3 0 10 -181 108 -193 104
-4 -1 -10 5 -13 13 -3 8 -10 13 -14 10 -5 -3 -14 1 -22 8 -7 7 -33 19 -58 27
-25 7 -53 21 -64 29 -10 9 -20 15 -22 14 -4 -3 -30 5 -59 18 -20 8 -201 69
-220 74 -5 1 -21 7 -35 12 -14 6 -28 9 -32 6 -4 -2 -16 0 -25 6 -10 5 -31 12
-48 15 -16 3 -73 14 -125 25 -52 10 -98 17 -102 14 -5 -2 -8 0 -8 5 0 5 -11 8
-25 7 -14 -2 -27 0 -29 4 -2 3 -20 6 -40 5 -20 -1 -36 1 -36 5 0 3 -26 7 -58
8 -107 4 -452 10 -454 7z m214 -1400 c7 -5 8 -2 3 6 -5 7 -4 11 1 7 5 -3 38
-8 74 -12 66 -6 115 -13 154 -21 11 -2 32 -6 46 -9 23 -4 60 -13 85 -19 21 -5
121 -38 143 -47 12 -5 32 -13 45 -18 88 -36 127 -56 127 -64 0 -6 3 -7 6 -4 9
9 82 -35 197 -117 54 -39 105 -75 114 -81 18 -12 163 -154 163 -160 0 -2 14
-19 31 -37 29 -31 109 -144 109 -154 0 -5 12 -21 38 -49 7 -8 10 -15 6 -15 -4
0 0 -8 8 -17 18 -21 98 -186 98 -202 0 -6 4 -11 8 -11 4 0 8 -8 9 -17 1 -10 4
-27 8 -39 l6 -21 -1531 0 -1531 0 5 26 c9 57 92 226 155 320 23 33 41 64 41
70 0 5 3 11 8 13 4 2 20 22 36 45 29 44 228 253 240 253 7 0 20 10 51 38 7 6
18 12 23 12 6 0 12 3 14 8 5 12 112 85 125 85 7 0 10 3 8 7 -4 7 231 123 251
123 8 0 14 5 14 10 0 6 3 8 6 5 3 -3 31 3 62 14 87 31 126 41 218 52 11 1 25
5 31 9 5 4 56 9 113 11 56 3 104 7 107 9 5 6 62 -1 75 -9z"/>
</g>
</svg>
